[
  {
    "title": 1,
    "name": "Philosopher's Stone",
    "year": "2001"
  },
  {
    "title": 2,
    "name": "Chamber of Secrets",
    "year": "2002"
  },
  {
    "title": 3,
    "name": "Prisoner of Azkaban",
    "year": "2004"
  },
  {
    "title": 4,
    "name": "Goblet of Fire",
    "year": "2005"
  },
  {
    "title": 5,
    "name": "Order of the Phoenix",
    "year": "2007"
  },
  {
    "title": 6,
    "name": "Half-Blood Prince",
    "year": "2009"
  },
  {
    "title": 7,
    "name": "Deathly Hallows",
    "year": "2010 & 2011"
  }
]
